<svg xmlns="http://www.w3.org/2000/svg" width="28.042" height="33" viewBox="0 0 28.042 33">
  <g id="icones_menu_svg_resumo" transform="translate(-0.75 -3.31)">
    <path id="Caminho_224" data-name="Caminho 224" d="M21.553,3.56H2.911A1.911,1.911,0,0,0,1,5.471v6.472a.637.637,0,1,0,1.274,0V5.471a.637.637,0,0,1,.637-.637H21.553a.654.654,0,0,1,.637.637v23.6a.654.654,0,0,1-.637.637H2.911a.637.637,0,0,1-.637-.637V17.3A.637.637,0,0,0,1,17.3V29.071a1.911,1.911,0,0,0,1.911,1.911H21.553a1.911,1.911,0,0,0,1.911-1.911V5.471A1.911,1.911,0,0,0,21.553,3.56Z" transform="translate(0 0)" fill="#5a2e88" stroke="#5a2e88" stroke-width="0.5"/>
    <path id="Caminho_225" data-name="Caminho 225" d="M2.07,9.893a.62.62,0,1,0,.189.448A.62.62,0,0,0,2.07,9.893Z" transform="translate(0.014 4.443)" fill="#5a2e88" stroke="#5a2e88" stroke-width="0.5"/>
    <path id="Caminho_226" data-name="Caminho 226" d="M3.564,20.4A.74.74,0,0,0,3.1,20.23a.723.723,0,0,0-.448.172.723.723,0,0,0-.172.448.74.74,0,0,0,.172.465.723.723,0,0,0,.448.172.74.74,0,0,0,.465-.172.74.74,0,0,0,.172-.465.723.723,0,0,0-.172-.448Z" transform="translate(1.068 12.026)" fill="#5a2e88" stroke="#5a2e88" stroke-width="0.5"/>
    <path id="Caminho_227" data-name="Caminho 227" d="M23.273,5a.637.637,0,0,0-.62.637V30.58a.654.654,0,0,1-.637.637H4.631a.637.637,0,1,0,0,1.257H22.017A1.894,1.894,0,0,0,23.91,30.58V5.706A.637.637,0,0,0,23.273,5Z" transform="translate(2.084 1.039)" fill="#5a2e88" stroke="#5a2e88" stroke-width="0.5"/>
    <path id="Caminho_228" data-name="Caminho 228" d="M25.777,6.51a.654.654,0,0,0-.637.637V32.021a.637.637,0,0,1-.637.637H4.587a.637.637,0,0,0-.637.637.654.654,0,0,0,.637.637H24.5a1.911,1.911,0,0,0,1.911-1.911V7.147a.654.654,0,0,0-.637-.637Z" transform="translate(2.128 2.128)" fill="#5a2e88" stroke="#5a2e88" stroke-width="0.5"/>
    <path id="Caminho_229" data-name="Caminho 229" d="M9.842,6.29H3.7a.654.654,0,0,0-.637.637v6.094a.654.654,0,0,0,.637.637H9.842a.654.654,0,0,0,.637-.637V6.927A.654.654,0,0,0,9.842,6.29Zm-.689,6.094H4.334V7.512h4.82Z" transform="translate(1.486 1.969)" fill="#5a2e88" stroke="#5a2e88" stroke-width="0.5"/>
    <path id="Caminho_230" data-name="Caminho 230" d="M7.635,12.317a.637.637,0,0,0-.9,0L5.018,14.038l-.775-.775a.637.637,0,0,0-.9.9l1.222,1.188a.654.654,0,0,0,.448.189.6.6,0,0,0,.482-.189l2.135-2.135a.62.62,0,0,0,0-.9Z" transform="translate(1.594 6.185)" fill="#5a2e88" stroke="#5a2e88" stroke-width="0.5"/>
    <path id="Caminho_231" data-name="Caminho 231" d="M15.189,12.74h-7.4a.637.637,0,0,0,0,1.274h7.4a.637.637,0,1,0,0-1.274Z" transform="translate(4.437 6.622)" fill="#5a2e88" stroke="#5a2e88" stroke-width="0.5"/>
    <path id="Caminho_232" data-name="Caminho 232" d="M13.685,6.312H9.192a.637.637,0,0,0,0,1.222h4.441a.637.637,0,1,0,0-1.274Z" transform="translate(5.579 1.948)" fill="#5a2e88" stroke="#5a2e88" stroke-width="0.5"/>
    <path id="Caminho_233" data-name="Caminho 233" d="M13.76,8.06H9.267a.637.637,0,0,0,0,1.274h4.441a.637.637,0,1,0,0-1.274Z" transform="translate(5.504 3.246)" fill="#5a2e88" stroke="#5a2e88" stroke-width="0.5"/>
    <path id="Caminho_234" data-name="Caminho 234" d="M13.76,9.83H9.267a.637.637,0,1,0,0,1.274h4.441a.637.637,0,1,0,0-1.274Z" transform="translate(5.504 4.523)" fill="#5a2e88" stroke="#5a2e88" stroke-width="0.5"/>
    <path id="Caminho_235" data-name="Caminho 235" d="M7.656,15.14a.62.62,0,0,0-.9,0L5.04,16.861l-.775-.792a.637.637,0,0,0-.9,0,.62.62,0,0,0,0,.9L4.592,18.2a.637.637,0,0,0,.448.172.585.585,0,0,0,.448-.172L7.622,16.07a.62.62,0,0,0,.034-.93Z" transform="translate(1.572 8.216)" fill="#5a2e88" stroke="#5a2e88" stroke-width="0.5"/>
    <path id="Caminho_236" data-name="Caminho 236" d="M15.189,15.54h-7.4a.654.654,0,0,0-.637.637.637.637,0,0,0,.637.637h7.4a.62.62,0,0,0,.637-.637A.637.637,0,0,0,15.189,15.54Z" transform="translate(4.437 8.642)" fill="#5a2e88" stroke="#5a2e88" stroke-width="0.5"/>
  </g>
</svg>
