{
  "project_info": {
    "project_number": "587056724172",
    "firebase_url": "https://compralo-33334.firebaseio.com",
    "project_id": "compralo-33334",
    "storage_bucket": "compralo-33334.appspot.com"
  },
  "client": [
    {
      "client_info": {
        "mobilesdk_app_id": "1:587056724172:android:daadd14852034f0ccdea69",
        "android_client_info": {
          "package_name": "app.compralo"
        }
      },
      "oauth_client": [
        {
          "client_id": "587056724172-avt6070n4kn3jmiu5qeelv729ovi27dk.apps.googleusercontent.com",
          "client_type": 3
        }
      ],
      "api_key": [
        {
          "current_key": "AIzaSyATfSD5KVWN5xpMVAgTQEIT4sr8NR_DhzQ"
        }
      ],
      "services": {
        "appinvite_service": {
          "other_platform_oauth_client": [
            {
              "client_id": "587056724172-avt6070n4kn3jmiu5qeelv729ovi27dk.apps.googleusercontent.com",
              "client_type": 3
            },
            {
              "client_id": "587056724172-4lu751h4a8s6spfvo3pmml9ge1168a9e.apps.googleusercontent.com",
              "client_type": 2,
              "ios_info": {
                "bundle_id": "app.compralo",
                "app_store_id": "1449405589"
              }
            }
          ]
        }
      }
    },
    {
      "client_info": {
        "mobilesdk_app_id": "1:587056724172:android:5598507baad6908fcdea69",
        "android_client_info": {
          "package_name": "app.compralo.br"
        }
      },
      "oauth_client": [
        {
          "client_id": "587056724172-avt6070n4kn3jmiu5qeelv729ovi27dk.apps.googleusercontent.com",
          "client_type": 3
        }
      ],
      "api_key": [
        {
          "current_key": "AIzaSyATfSD5KVWN5xpMVAgTQEIT4sr8NR_DhzQ"
        }
      ],
      "services": {
        "appinvite_service": {
          "other_platform_oauth_client": [
            {
              "client_id": "587056724172-avt6070n4kn3jmiu5qeelv729ovi27dk.apps.googleusercontent.com",
              "client_type": 3
            },
            {
              "client_id": "587056724172-4lu751h4a8s6spfvo3pmml9ge1168a9e.apps.googleusercontent.com",
              "client_type": 2,
              "ios_info": {
                "bundle_id": "app.compralo",
                "app_store_id": "1449405589"
              }
            }
          ]
        }
      }
    }
  ],
  "configuration_version": "1"
}