<?xml version="1.0" encoding="utf-8"?>
<!-- Generator: Adobe Illustrator 24.0.1, SVG Export Plug-In . SVG Version: 6.00 Build 0)  -->
<svg version="1.1" id="Layer_1" xmlns="http://www.w3.org/2000/svg" xmlns:xlink="http://www.w3.org/1999/xlink" x="0px" y="0px"
	 viewBox="0 0 100 100" style="enable-background:new 0 0 100 100;" xml:space="preserve">
<style type="text/css">
	.st0{fill:#5A2E88;}
	.st1{fill:#5A2D86;}
	.st2{fill:#EA9623;}
</style>
<g>
	<g id="Group_79" transform="translate(-39 -392)">
		<g id="Ellipse_17" transform="translate(39 392)">
			<g>
				<path class="st0" d="M50,99.8C22.5,99.8,0.2,77.5,0.2,50S22.5,0.2,50,0.2S99.8,22.5,99.8,50S77.5,99.8,50,99.8z M50,4.6
					C25,4.6,4.6,25,4.6,50S25,95.4,50,95.4S95.4,75,95.4,50S75,4.6,50,4.6z"/>
			</g>
		</g>
	</g>
	<g>
		<path class="st1" d="M61.1,56.8c-1.4,0-2.5,0.7-3.6,2.1c-2.2,3.1-5.3,4.7-9.3,4.7c-3.2,0-5.9-1.2-8.1-3.4c-2.3-2.3-3.4-5-3.4-8.2
			c0-3.2,1.1-5.9,3.4-8.2c2.3-2.3,5-3.4,8.1-3.4c3.8,0,6.9,1.7,9.2,5c1.1,1.3,2.3,2,3.7,2c1.1,0,2-0.4,2.7-1
			c0.8-0.7,1.1-1.5,1.1-2.6c0-1-0.4-2.1-1.2-3.1c-0.3-0.5-0.7-1-1.1-1.4c-0.3,0.2-0.6,0.2-1,0.2h-2.8c-1.2,0-2.1-1-2.1-2.1v-2.6
			c-2.6-1.3-5.4-1.9-8.4-1.9c-5.6,0-10.3,1.9-14.3,5.6c-3.9,3.7-5.9,8.2-5.9,13.5c0,5.2,2,9.7,5.9,13.5c4,3.7,8.7,5.6,14.3,5.6
			c3.2,0,6.1-0.7,8.8-2.1c2.7-1.4,4.9-3.2,6.6-5.5c0.8-1,1.2-2.1,1.2-3.1c0-1-0.4-1.9-1.1-2.6C63.1,57.2,62.2,56.8,61.1,56.8z"/>
		<g>
			<g>
				<g>
					<g>
						<path class="st2" d="M53.4,52.6c-0.3,2.7-2.7,4.7-5.4,4.4c-2.7-0.3-4.7-2.7-4.4-5.4c0.3-2.7,2.7-4.7,5.4-4.4
							C51.6,47.5,53.6,49.9,53.4,52.6z"/>
					</g>
				</g>
			</g>
		</g>
	</g>
	<g>
		<g>
			<path class="st0" d="M69.2,28.3v2.6c0,0.6-0.4,1-1,1h-5.5v5.6c0,0.5-0.4,0.9-0.9,1c0,0-0.1,0-0.1,0h-2.8c-0.6,0-1-0.5-1-1v-5.6
				h-5.4c-0.6,0-1-0.4-1-1v-2.6c0-0.5,0.4-1,1-1h5.4c0,0,0.1,0,0.1,0v-5.6c0-0.6,0.4-1,1-1h2.8c0.6,0,1,0.4,1,1v5.6h5.5
				C68.8,27.3,69.2,27.8,69.2,28.3z"/>
		</g>
	</g>
</g>
</svg>
