<svg xmlns="http://www.w3.org/2000/svg" xmlns:xlink="http://www.w3.org/1999/xlink" width="88.09" height="112.115" viewBox="0 0 88.09 112.115">
  <defs>
    <clipPath id="clip-path">
      <rect width="88.09" height="112.115" fill="none"/>
    </clipPath>
    <linearGradient id="linear-gradient" x1="0.822" y1="0.126" x2="0.092" y2="1" gradientUnits="objectBoundingBox">
      <stop offset="0" stop-color="#cfc0e8"/>
      <stop offset="0.567" stop-color="#e4d2e7"/>
      <stop offset="1" stop-color="#fad0e9"/>
    </linearGradient>
  </defs>
  <g id="icones_menu_svg_enviar-solicitar" transform="translate(0 0)" clip-path="url(#clip-path)">
    <path id="Caminho_237" data-name="Caminho 237" d="M86.924,50.31l-5.417-9.293v-.3a2.286,2.286,0,0,0-.895-.646L52.285,30.63V23.971h3.578A2.187,2.187,0,0,0,57.7,20.591L45.725,2.551a2.187,2.187,0,0,0-3.678,0L30.368,20.591a2.187,2.187,0,0,0,1.789,3.379h3.578V30.63L7.359,40.122a2.087,2.087,0,0,0-1.044.895L.848,50.31a5.765,5.765,0,0,0,2.833,8.15l2.336.895V94.64a6.312,6.312,0,0,0,4.025,5.864l33.1,12.623a1.988,1.988,0,0,0,.745,0,2.236,2.236,0,0,0,.8,0L77.73,100.7A6.311,6.311,0,0,0,81.8,94.839V59.554l2.236-1.093a5.815,5.815,0,0,0,3.28-3.479,5.616,5.616,0,0,0-.4-4.672ZM43.886,7.72l7.7,11.878H49.85a2.187,2.187,0,0,0-2.187,2.187V41.017H40.109V21.784A2.187,2.187,0,0,0,37.922,19.6H36.183ZM37.922,45.34H49.85a2.187,2.187,0,0,0,2.187-2.187V35.2l21.121,7.057L43.886,53.491,14.465,42.259,35.736,35.2v7.952a2.187,2.187,0,0,0,2.187,2.187Zm-33.4,8.15a1.392,1.392,0,0,1,0-1.143l4.522-7.653L40.556,56.97l-5.417,8.2a1.441,1.441,0,0,1-1.64.5L5.321,54.435A1.193,1.193,0,0,1,4.526,53.491ZM77.431,94.54a1.888,1.888,0,0,1-1.242,1.789l-30.116,11.48V97.025a2.187,2.187,0,1,0-4.373,0v10.784L11.583,96.479a1.888,1.888,0,0,1-1.242-1.789V61.144l21.568,8.548a4.97,4.97,0,0,0,2.087.4,5.665,5.665,0,0,0,4.97-2.535L41.9,63.132V77.3a2.187,2.187,0,1,0,4.373,0V63.132L49.2,67.555a5.765,5.765,0,0,0,4.97,2.535,4.97,4.97,0,0,0,2.087-.4l21.568-8.548Zm5.815-41.05a1.242,1.242,0,0,1-.745.8L54.223,65.666a1.491,1.491,0,0,1-1.64-.5l-5.367-8.2L78.674,44.843,83.147,52.5A1.193,1.193,0,0,1,83.246,53.491Z" transform="translate(0.161 -1.298)" stroke="#b5b5b5" stroke-width="0.5" fill="url(#linear-gradient)"/>
    <path id="Caminho_238" data-name="Caminho 238" d="M10.64,22.627A2.187,2.187,0,0,1,8.6,21.136,2.236,2.236,0,0,1,9.3,18.7a2.286,2.286,0,0,1,2.435,0,2.137,2.137,0,0,1,1.044,2.236A2.187,2.187,0,0,1,10.64,22.627Z" transform="translate(33.407 65.398)" stroke="#b5b5b5" stroke-width="0.5" fill="url(#linear-gradient)"/>
  </g>
</svg>
